<?xml version="1.0" encoding="UTF-8" standalone="no"?>
<!-- Created with Inkscape (http://www.inkscape.org/) -->

<svg
   xmlns:dc="http://purl.org/dc/elements/1.1/"
   xmlns:cc="http://creativecommons.org/ns#"
   xmlns:rdf="http://www.w3.org/1999/02/22-rdf-syntax-ns#"
   xmlns:svg="http://www.w3.org/2000/svg"
   xmlns="http://www.w3.org/2000/svg"
   xmlns:sodipodi="http://sodipodi.sourceforge.net/DTD/sodipodi-0.dtd"
   xmlns:inkscape="http://www.inkscape.org/namespaces/inkscape"
   width="183.40625"
   height="183.375"
   id="svg3067"
   version="1.1"
   inkscape:version="0.48.4 r9939"
   sodipodi:docname="New document 3">
  <defs
     id="defs3069" />
  <sodipodi:namedview
     id="base"
     pagecolor="#ffffff"
     bordercolor="#666666"
     borderopacity="1.0"
     inkscape:pageopacity="0.0"
     inkscape:pageshadow="2"
     inkscape:zoom="0.35"
     inkscape:cx="91.70312"
     inkscape:cy="91.687497"
     inkscape:document-units="px"
     inkscape:current-layer="layer1"
     showgrid="false"
     fit-margin-top="0"
     fit-margin-left="0"
     fit-margin-right="0"
     fit-margin-bottom="0"
     inkscape:window-width="593"
     inkscape:window-height="755"
     inkscape:window-x="515"
     inkscape:window-y="198"
     inkscape:window-maximized="0" />
  <metadata
     id="metadata3072">
    <rdf:RDF>
      <cc:Work
         rdf:about="">
        <dc:format>image/svg+xml</dc:format>
        <dc:type
           rdf:resource="http://purl.org/dc/dcmitype/StillImage" />
        <dc:title></dc:title>
      </cc:Work>
    </rdf:RDF>
  </metadata>
  <g
     inkscape:label="Layer 1"
     inkscape:groupmode="layer"
     id="layer1"
     transform="translate(-283.29688,-440.67468)">
    <path
       style="fill:#333333;fill-opacity:1;stroke:none"
       d="m 337.01563,440.67468 c -4.10099,11.80345 -8.93675,24.80727 -14.5625,39.125 8.36226,-3.28572 17.11064,-6.78758 26.375,-10.625 9.25973,-3.83551 17.9235,-7.53701 26.15625,-11.125 -14.10358,-6.14675 -26.72171,-11.92808 -37.96875,-17.375 z m 37.96875,17.375 c 8.23575,3.58938 16.92393,7.2879 26.1875,11.125 9.26436,3.83742 18.01274,7.33928 26.375,10.625 -5.62575,-14.31773 -10.46151,-27.32155 -14.5625,-39.125 -11.24976,5.44824 -23.89229,11.22659 -38,17.375 z m 52.5625,21.75 c 3.28572,8.36226 6.81883,17.11064 10.65625,26.375 3.83779,9.26525 7.53502,17.95044 11.125,26.1875 6.14825,-14.1069 11.92692,-26.75106 17.375,-38 -11.80345,-4.10099 -24.83852,-8.93675 -39.15625,-14.5625 z m 21.78125,52.5625 c -3.58998,8.23706 -7.28721,16.891 -11.125,26.15625 -3.83581,9.26045 -7.37169,18.01589 -10.65625,26.375 14.30645,-5.62131 27.32893,-10.46358 39.125,-14.5625 -5.44448,-11.24253 -11.20013,-23.87249 -17.34375,-37.96875 z m -21.78125,52.53125 c -8.36226,3.28572 -17.11064,6.81883 -26.375,10.65625 -9.26357,3.8371 -17.95175,7.53562 -26.1875,11.125 14.10771,6.14841 26.75024,11.92676 38,17.375 4.102,-11.80636 8.93498,-24.83436 14.5625,-39.15625 z m -52.5625,21.78125 c -8.23275,-3.58799 -16.89652,-7.28949 -26.15625,-11.125 -9.26436,-3.83742 -18.01274,-7.37053 -26.375,-10.65625 5.62752,14.32189 10.4605,27.34989 14.5625,39.15625 11.24704,-5.44692 23.86517,-11.22825 37.96875,-17.375 z m -52.53125,-21.78125 c -3.28456,-8.35911 -6.82044,-17.11455 -10.65625,-26.375 -3.83779,-9.26525 -7.53502,-17.91919 -11.125,-26.15625 -6.14362,14.09626 -11.89927,26.72622 -17.34375,37.96875 11.79607,4.09892 24.81855,8.94119 39.125,14.5625 z m -21.78125,-52.53125 c 3.58998,-8.23706 7.28721,-16.92225 11.125,-26.1875 3.83742,-9.26436 7.37053,-18.01274 10.65625,-26.375 -14.31773,5.62575 -27.3528,10.46151 -39.15625,14.5625 5.44808,11.24894 11.22675,23.8931 17.375,38 z"
       id="path2987"
       inkscape:connector-curvature="0" />
    <path
       style="fill:#ff7f2a;fill-opacity:1;stroke:none"
       d="m 373.82655,465.41849 c 1.67319,0.58291 15.18421,5.45881 -1.5625,9.75 2.03097,0.37912 4.43524,0.7096 7.40625,1 9.8171,0.95957 14.35101,0.33031 16,-0.96875 -0.17183,-0.89733 0.12411,-1.52515 0.71875,-1.96875 -0.19094,-0.91454 -0.91429,-1.89188 -1.78125,-2.78125 -1.67405,-0.373 -3.522,-0.76349 -5.75,-1.28125 -10.12733,-2.35346 -14.09681,-3.4807 -15.03125,-3.75 z"
       id="path3028"
       inkscape:connector-curvature="0" />
    <path
       style="fill:#ff7f2a;fill-opacity:1;stroke:none"
       d="m 344.9203,474.13724 c -1.45255,0.92331 -3.04842,1.94068 -5,3.15625 -8.82525,5.49695 -12.46133,7.49843 -13.3125,7.96875 1.54867,-0.74901 14.62199,-6.88977 5.8125,8 1.70541,-1.16857 3.66014,-2.63376 5.96875,-4.53125 7.64541,-6.2839 10.3306,-9.91888 10.5625,-12 -0.71417,-0.50192 -0.93776,-1.16606 -0.84375,-1.875 -0.77476,-0.5109 -1.95298,-0.70022 -3.1875,-0.71875 z"
       id="path3022"
       inkscape:connector-curvature="0" />
    <path
       style="fill:#ff7f2a;fill-opacity:1;stroke:none"
       d="m 421.2328,484.73099 c 0.74901,1.54867 6.92102,14.62199 -7.96875,5.8125 1.166,1.69957 2.61218,3.6719 4.5,5.96875 6.25753,7.61333 9.91446,10.31079 12,10.5625 0.51167,-0.74695 1.17621,-0.94946 1.90625,-0.84375 0.51532,-0.78145 0.67161,-1.973 0.6875,-3.21875 -0.91859,-1.44535 -1.91829,-3.0314 -3.125,-4.96875 -5.49695,-8.82525 -7.52968,-12.46133 -8,-13.3125 z"
       id="path3020"
       inkscape:connector-curvature="0" />
    <path
       style="fill:#ff7f2a;fill-opacity:1;stroke:none"
       d="m 315.1078,510.10599 c -0.89046,0.18931 -1.84909,0.91273 -2.71875,1.75 -0.37563,1.68674 -0.82025,3.52856 -1.34375,5.78125 -2.35346,10.12733 -3.4807,14.12806 -3.75,15.0625 0.54809,-1.57629 5.43889,-15.29067 9.75,1.5625 0.38075,-2.03514 0.73981,-4.45581 1.03125,-7.4375 0.95902,-9.81156 0.2976,-14.31746 -1,-15.96875 -0.89939,0.17188 -1.52515,-0.1522 -1.96875,-0.75 z"
       id="path3014"
       inkscape:connector-curvature="0" />
    <path
       style="fill:#ff7f2a;fill-opacity:1;stroke:none"
       d="m 431.3578,530.41849 c -0.37611,2.02322 -0.74278,4.4237 -1.03125,7.375 -0.96211,9.8431 -0.27465,14.33054 1.03125,15.96875 0.87447,-0.15368 1.50108,0.16498 1.9375,0.75 0.88997,-0.18921 1.84948,-0.8821 2.71875,-1.71875 0.37686,-1.69265 0.81757,-3.54825 1.34375,-5.8125 8.73686,-37.5961 0.64771,9.2897 -6,-16.5625 z"
       id="path3012"
       inkscape:connector-curvature="0" />
    <path
       style="fill:#ff7f2a;fill-opacity:1;stroke:none"
       d="m 318.63905,557.54349 c -0.50992,0.74679 -1.17852,0.94653 -1.90625,0.84375 -0.51107,0.77501 -0.70032,1.9838 -0.71875,3.21875 0.92297,1.45204 1.9413,3.01818 3.15625,4.96875 5.49695,8.82525 7.52968,12.46133 8,13.3125 -0.74901,-1.54867 -6.92102,-14.62199 7.96875,-5.8125 -1.166,-1.69957 -2.61218,-3.64065 -4.5,-5.9375 -6.25234,-7.60702 -9.9136,-10.33815 -12,-10.59375 z"
       id="path3006"
       inkscape:connector-curvature="0" />
    <path
       style="fill:#ff7f2a;fill-opacity:1;stroke:none"
       d="m 415.95155,571.35599 c -1.70195,1.16705 -3.63586,2.63949 -5.9375,4.53125 -7.60702,6.25234 -10.33815,9.88235 -10.59375,11.96875 0.73868,0.50438 0.96955,1.1878 0.875,1.90625 0.77536,0.50006 1.96447,0.70039 3.1875,0.71875 1.45255,-0.92331 3.04842,-1.94068 5,-3.15625 8.82525,-5.49695 12.43008,-7.49843 13.28125,-7.96875 -1.54877,0.74906 -14.62552,6.89358 -5.8125,-8 z"
       id="path3004"
       inkscape:connector-curvature="0" />
    <path
       style="fill:#ff7f2a;fill-opacity:1;stroke:none"
       d="m 359.4203,588.01224 c -3.62144,0.10018 -5.68805,0.62329 -6.6875,1.40625 0.17207,0.89857 -0.15377,1.52507 -0.75,1.96875 0.19094,0.91454 0.94554,1.89188 1.8125,2.78125 1.67333,0.37285 3.49214,0.76381 5.71875,1.28125 10.12733,2.35346 14.12806,3.4807 15.0625,3.75 -1.67169,-0.58238 -15.17719,-5.43033 1.5,-9.71875 -2.02322,-0.37611 -4.4237,-0.74278 -7.375,-1.03125 -3.88045,-0.37929 -6.90919,-0.50312 -9.28125,-0.4375 z"
       id="path3002"
       inkscape:connector-curvature="0" />
  </g>
</svg>
